\relax 
\@writefile{lof}{\contentsline {figure}{\numberline {1}{\ignorespaces Recursion Tree for Count (Duplicate Work Circled)}}{2}}
\@writefile{lof}{\contentsline {figure}{\numberline {2}{\ignorespaces Run time using Master Method and Recursion Tree Method}}{5}}
