\relax 
\@writefile{lof}{\contentsline {figure}{\numberline {1}{\ignorespaces Problem Two}}{2}}
\@writefile{lof}{\contentsline {figure}{\numberline {2}{\ignorespaces Problem Three}}{2}}
\@writefile{lof}{\contentsline {figure}{\numberline {3}{\ignorespaces Problem Four Part 1}}{3}}
\@writefile{lof}{\contentsline {figure}{\numberline {4}{\ignorespaces Problem Four Part 2}}{3}}
