^prob_2.asm
X:\homework_6\prob_2\prob_two\prob_two\Debug\prob_2.obj
^prob_2.asm
X:\homework_6\prob_2\prob_two\prob_two\Debug\prob_2.obj
^prob_2.asm
X:\homework_6\prob_2\prob_two\prob_two\Debug\prob_2.obj
^prob_2.asm
X:\homework_6\prob_2\prob_two\prob_two\Debug\prob_2.obj
^prob_2.asm
X:\homework_6\prob_2\prob_two\prob_two\Debug\prob_2.obj
^prob_2.asm
X:\homework_6\prob_2\prob_two\prob_two\Debug\prob_2.obj
^prob_2.asm
X:\homework_6\prob_2\prob_two\prob_two\Debug\prob_2.obj
^prob_2.asm
X:\homework_6\prob_2\prob_two\prob_two\Debug\prob_2.obj
